<?xml version="1.0" encoding="iso-8859-1"?>
<!-- Generator: Adobe Illustrator 18.0.0, SVG Export Plug-In . SVG Version: 6.00 Build 0)  -->
<!DOCTYPE svg PUBLIC "-//W3C//DTD SVG 1.1//EN" "http://www.w3.org/Graphics/SVG/1.1/DTD/svg11.dtd">
<svg version="1.1" id="Capa_1" xmlns="http://www.w3.org/2000/svg" xmlns:xlink="http://www.w3.org/1999/xlink" x="0px" y="0px"
	 viewBox="0 0 219.998 219.998" style="enable-background:new 0 0 219.998 219.998;" xml:space="preserve">
<path style="fill:#555555;" d="M110,5.666l109.998,55l-109.998,55l-110-55L110,5.666z M110,135.666L30.666,95.999L0,111.332l110,55
	l109.998-55l-30.666-15.333L110,135.666z M110,183.666l-79.334-39.667L0,159.332l110,55l109.998-55l-30.666-15.333L110,183.666z"/>

</svg>
